48056 953123
541311 275257
775521 118805
834733 368725
633475 350427
38499 601275
211700 721433
178849 842227
609263 26271
290546 779971
187986 776256
211633 209710
944230 705792
875103 14592
239719 521759
255084 807436
64362 482996
185308 424008
468419 70150
565351 190633
9481 71331
731443 360539
91404 734968
466722 487741
169871 646543
170156 792853
527532 220399
989770 643896
621823 986540
742096 160813
904418 710675
43862 895506
610903 380513
488302 489268
792821 457017
7686 6535
620310 664232
744958 990109
835020 373056
157199 563979
183400 831065
496048 49085
852244 855920
880575 769358
369913 977896
750970 254747
816208 308711
47502 68492
295177 403422
181313 171181
639431 837886
221450 925469
515549 995484
237013 688271
360945 853049
423151 281291
164953 670313
453248 579985
772037 952333
200960 520494
224591 501641
702686 20940
667087 143450
873604 721359
172740 411989
421918 207265
785932 704619
424837 123096
607732 788486
455922 336883
353235 238859
33393 469333
552603 664562
327522 372961
236633 415996
44014 198611
184549 307262
388146 61607
678120 986357
745202 934235
515622 506699
236203 87748
78160 867729
139537 715406
886809 371522
606025 60728
710926 407742
731154 27078
528817 968492
41317 865161
84085 129961
873284 502479
514518 364578
191973 476246
320769 872104
37313 586038
664731 799849
501204 186283
38293 838224
85180 622412
241526 493943
984058 486376
351256 609691
785748 798986
329430 106655
979215 547527
276854 731278
166927 168558
341751 278328
921137 174054
58943 962325
226994 829532
452059 588384
864764 637208
85731 362129
130678 338140
551394 977311
956608 840756
77416 893709
746248 142002
678788 199319
190437 127805
519229 269338
784922 588134
461283 818474
759436 976154
235705 607096
899725 15238
669509 486862
572756 904071
24957 53282
319893 229652
80706 246537
928940 661888
328929 623051
706628 484502
891143 114240
290115 492797
328628 619695
855956 372956
915568 50333
849804 926970
537569 403667
823043 925385
543261 231889
353139 238235
420946 524197
272536 878479
911591 905291
347656 754480
143915 972408
456601 869481
897930 158423
813469 861553
648612 635291
536358 174088
886662 918087
56329 588173
627592 994761
874146 681249
981364 618921
502479 800009
84132 852197
999945 213587
31762 249755
63896 67801
67170 368839
420664 297390
376156 940485
703798 918368
743561 789621
995332 509344
52202 121899
381578 623267
118833 441576
651168 69270
36346 544201
950959 779251
538383 152876
106473 905940
890512 548422
278256 505386
522139 802126
259804 491424
747892 751094
274693 835945
502029 984849
745442 685823
289618 983556
783385 452212
499025 540688
987289 654987
666134 145271
296265 495174
452637 117876
210003 170361
654946 42998
524524 380010
881459 348646
15480 514635
257037 190870
653432 502437
804244 776431
288077 398480
604107 686006
438806 708482
362133 846307
136933 614694
803195 570879
715396 570438
653811 630604
808319 111267
98106 543346
611905 506555
958511 865649
632818 133114
874983 124940
538208 827735
905925 237535
879806 405352
958159 767949
154305 568906
758904 773375
130427 673523
901226 946572
607461 512195
146221 536630
118709 316351
978939 530054
937479 899482
581259 173725
252041 335195
259561 356822
402497 479056
720792 536875
628598 425938
509808 788572
853046 448477
489761 277429
485531 797960
381225 93455
211049 233261
634933 2014
415702 302627
370469 573807
128094 613624
46145 810403
712009 317619
46268 468194
45034 473528
922205 639996
903218 968993
693100 209202
64205 191245
862189 24991
320577 668813
339468 662419
360185 884694
347472 464820
851778 843201
263335 804316
616026 492799
533654 723839
355929 385668
117915 668445
36185 176016
934089 911712
637519 343739
701668 719041
378495 890421
297622 964526
786380 277936
263868 800237
67091 751132
688364 643510
279415 851020
157584 936591
157830 749725
655001 432075
115568 438231
107182 609215
26789 911005
634332 457185
977051 107832
417131 579256
795993 922298
575008 255410
732310 474000
956696 14673
721881 33035
498808 941056
211749 216125
82975 269459
205027 28433
537491 138557
979837 695072
912641 112750
302484 267840
117415 625218
171799 500386
