893241 513495 525
595371 319247 470
619949 338060 470
832997 420384 509
15884 141382 354
44380 106575 354
223866 255082 443
390002 242474 441
331870 520186 470
613723 60837 470
767818 88577 509
993189 513957 525
539237 327963 470
550370 587742 434
554936 845811 525
171916 655462 509
45424 934330 525
274298 269880 407
795809 650725 504
883252 509861 525
770731 965269 525
689897 449278 509
718830 622314 509
219303 860917 525
848990 440922 525
435241 2688 449
263734 506140 449
352308 176952 443
894637 704416 525
311856 615482 470
329511 246978 407
763959 642149 504
880726 194229 525
733482 268467 509
547201 644748 509
399204 576074 470
449644 633538 509
794075 905057 525
517634 931434 525
717747 179744 509
855274 257204 525
551762 627149 509
423623 515047 470
180093 856368 525
820750 750587 468
499522 58007 449
573649 133991 470
858041 196328 525
324466 594156 470
315627 431469 449
587125 722545 509
777463 872534 525
638746 314508 509
626697 479025 509
586470 209845 470
906169 279918 525
733179 319206 509
428751 379852 449
506512 5180 449
5569 162507 383
259862 460231 449
89979 554186 470
403172 164471 443
5533 752597 509
178468 308676 443
326682 680097 509
710690 807754 468
362981 482589 449
9091 206487 383
145052 278062 443
848481 111912 525
60656 460940 449
2645 767191 509
774455 482740 509
954279 818152 525
257483 217147 443
153242 945023 525
369547 512652 470
924050 706464 525
566625 114680 470
971886 559315 525
721126 158840 509
225383 857401 525
430135 14276 449
140526 647309 509
441565 120733 449
795563 73872 509
698189 810022 504
444030 141917 449
523431 666302 509
14654 81831 351
696346 465514 509
462517 634259 509
115844 740862 509
303554 246285 407
300641 569495 470
731204 336288 509
556921 572735 421
394556 382199 436
93856 562677 470
228531 814968 509
286428 748800 509
34673 812209 509
192677 611246 470
117682 799103 509
26243 174124 383
851852 69382 525
198109 197343 285
223566 469629 449
876093 369905 525
220201 117272 386
409862 464909 449
661971 484232 509
841430 414810 525
915321 404997 525
508513 153962 449
970906 686633 525
970141 572706 525
700306 853227 525
602946 610253 403
226032 240455 443
835756 880153 525
103725 715680 509
203206 49377 383
373626 615690 470
140441 808309 509
345858 404478 441
276079 434800 449
650118 464308 509
196804 650885 509
644494 162803 509
350517 184973 443
322893 669509 509
903754 11309 525
842080 167053 525
326632 238881 407
552744 347861 470
719667 698878 504
29296 866583 525
938242 82847 525
293819 365857 441
480595 657519 509
975079 514020 525
50786 169480 383
767953 30154 509
7891 939134 525
917152 158120 525
299560 559007 470
857259 896946 445
539209 88795 470
391290 256539 441
672466 516357 509
500177 267185 449
926690 859844 476
190824 519156 470
682560 672 509
169724 150543 383
608975 362844 470
757445 601861 509
663107 457341 509
961268 617878 525
409622 282817 441
370995 769651 509
626398 939266 525
413112 142345 449
677200 14689 509
951846 301622 525
515030 287932 470
246551 947501 525
518076 616028 452
734769 519235 509
339009 913915 525
315018 254429 407
982583 546730 525
214072 181682 373
892601 35324 525
501321 377882 449
85820 48962 351
742816 423260 509
709026 466014 509
219174 199479 386
677913 872144 525
389485 886728 525
818953 79602 509
55444 1938 340
342132 290758 384
43708 28774 324
745235 304872 509
915731 76209 525
448689 933283 525
612746 696090 509
676072 407551 509
683003 74835 509
203945 193310 360
250112 154944 443
448339 476920 444
133314 90328 354
693112 402466 509
84742 78625 338
345199 859027 525
389889 42421 443
426136 77311 449
299561 210703 443
998158 488933 525
357367 847149 525
13392 238501 443
755788 393574 509
410429 7876 449
803824 476259 509
827562 977482 525
946453 751502 525
957356 507114 525
979851 816914 525
29358 973562 525
818318 979659 525
289442 658731 509
344265 757566 509
245372 338020 407
321094 453060 449
416275 298752 449
43079 227432 386
439530 503694 444
838203 238634 525
662193 651435 429
252186 230457 443
699703 319060 509
165889 923686 525
791778 817204 468
961385 816071 525
22702 402022 443
53988 737334 509
922327 218012 525
581881 151902 470
575990 19090 470
452238 342577 449
340114 104974 443
82920 192767 383
157545 842386 525
787405 897919 525
646732 860730 525
535698 540045 377
528769 21709 470
70853 435813 449
812400 972206 525
27229 817116 509
449079 571354 470
592238 464924 470
425063 72614 449
168730 344431 443
907171 975008 507
267530 725849 509
932257 805632 525
299240 60427 443
563257 469455 470
549832 524306 452
858026 328180 525
468699 557261 470
903572 497328 525
966173 285809 525
979948 949087 458
163939 302241 443
615092 556623 447
599398 727403 509
245567 540698 470
654938 736325 504
