778977 404019 509
869052 275751 525
86203 527883 470
996771 711689 525
663397 915868 525
415413 925262 525
780936 425315 509
622267 712459 509
865251 195602 525
38989 117463 354
700199 425644 509
11583 45297 324
204446 235753 443
233014 881081 525
649112 171952 509
194464 40079 383
9641 205277 383
719000 990766 525
456837 794595 509
644483 156516 509
402637 790186 509
721601 711460 411
812578 761348 468
112571 981404 525
282721 693887 509
508125 527531 470
256802 89398 443
387235 637865 509
109760 836767 509
2617 313890 443
303518 950302 525
711047 240538 509
993913 66431 525
23088 652467 509
459043 445861 387
671364 59438 509
381899 610284 470
495408 843420 525
943173 926482 507
764488 196604 509
524700 803174 509
613402 66193 470
719970 793301 468
860436 711167 525
727087 133623 509
187017 560402 470
75032 838322 525
436437 453459 400
885817 388597 525
954154 578673 525
355383 353253 379
739791 369368 509
408727 152897 443
639664 538676 509
188467 458922 449
802653 732491 468
908882 7682 525
237034 73950 443
35325 367800 443
833621 615396 509
988706 992519 352
276301 609552 470
594305 751688 509
183740 311831 443
42848 499637 449
717846 894563 525
35960 9631 324
845370 751487 525
491394 842559 525
979701 921965 507
178169 672645 509
347053 561437 470
492198 594543 470
68636 297802 443
444853 835956 509
330166 769096 509
970909 466671 525
351646 442832 449
878872 158688 525
564502 966409 525
63795 128328 354
376718 766846 509
596387 102390 470
494078 305371 449
6945 643876 509
909860 288438 525
114081 132143 349
127642 967957 525
879196 238960 525
591827 339803 470
575421 716258 509
536174 638137 509
122663 317538 443
951560 196031 525
349419 750470 509
629662 985540 525
513533 610128 452
36518 670072 509
379189 558179 470
472368 293938 449
769275 627998 504
870450 901816 445
27774 500226 449
378996 414236 449
668736 897195 525
755294 604302 509
261529 743693 509
26817 518217 470
255854 833010 509
914712 801552 525
399163 465137 449
707663 576455 509
532825 117489 470
539226 575940 452
87507 302478 443
768664 636226 504
713365 53712 509
156431 801942 509
7904 243922 443
100023 424316 449
981795 682584 525
266324 857313 525
990314 715162 525
903708 375314 525
400809 589241 470
956964 159865 525
906547 689121 525
859946 641128 525
657292 861322 525
180191 380968 443
32628 184841 383
933315 108395 525
529069 169005 470
788062 433707 509
159171 135456 383
952220 37253 525
994124 466416 525
409543 235529 441
983862 118452 525
346706 92768 443
215031 26167 383
29264 736904 509
540077 781330 509
7211 528248 470
359693 987371 525
603983 204547 470
784554 610033 509
448870 212545 449
972447 708096 525
533092 899113 525
915728 760394 525
614751 194322 470
212501 438528 449
81304 404043 443
566271 327124 470
858728 645646 525
42086 542299 470
19616 873942 525
215185 11773 383
56592 251873 443
840771 172712 525
284872 592768 470
928026 326010 525
405204 516809 470
921277 746195 525
453032 751165 509
940911 931827 507
124978 836599 509
707699 777700 468
767627 765619 331
224474 240264 443
959400 943608 414
841677 742290 525
964318 970550 365
507529 825197 509
144006 766591 509
53393 103171 351
447822 23988 449
92446 156339 383
946173 609766 525
269654 230076 443
382790 389515 436
913986 53171 525
180328 442288 449
649023 893451 525
818446 801449 406
76177 714271 509
879126 420858 525
8469 629886 509
729756 212794 509
192002 48983 383
832463 959029 525
556050 811573 509
402271 455303 449
641395 179403 509
591113 714229 509
152238 553124 470
799766 947494 525
843706 682374 525
72196 281212 443
282450 511819 449
363804 537098 470
202345 313090 443
692251 992107 525
851466 251592 525
16233 768771 509
935699 34863 525
985386 503059 525
886949 227360 525
220842 622605 470
325222 955130 525
184917 374522 443
424983 578826 470
629361 528038 509
441208 761837 509
838037 879373 432
474991 667825 509
302937 104486 443
254826 649393 509
422207 941514 525
890792 670722 525
208605 78073 383
456446 147165 449
348705 405424 436
609445 383040 470
524047 823450 509
931745 342454 525
662509 314047 509
972916 822505 525
19015 369140 443
198773 861003 525
36292 315422 443
840782 328018 525
83884 111329 354
633037 428732 509
595596 717222 509
481976 748489 509
108568 484905 449
961846 431295 525
424619 916037 525
