32105 6112
100866 865320
737376 349945
700577 6745
828685 918735
235958 61513
400396 636704
519569 486570
421876 314812
400158 338378
171387 756537
176975 119044
434645 652190
468893 526829
604241 34750
23732 127324
67553 642870
649247 377998
683872 338887
144239 994555
656510 587504
495769 234486
370433 30335
884872 742034
366232 229825
377193 753887
379827 838293
583334 384907
950746 602384
544252 375727
748686 434450
73334 493876
777662 319196
573914 41974
405464 756332
207953 986122
502428 737116
54978 70545
353701 895104
470720 877254
571083 791333
953734 928961
244593 445678
131771 712118
896184 890266
612231 555232
204948 383868
485264 104479
861651 789916
695310 515798
91289 613601
831777 289839
408329 309305
682513 512182
586204 786562
947567 962228
490419 777249
252703 376731
328946 996449
784150 374810
576664 588983
452394 983913
130284 977087
290492 251783
896930 820743
938877 20101
909028 800851
353622 752348
977076 119197
65010 29081
630304 512946
279644 961774
771530 910068
590009 763631
977861 567169
94046 691366
747693 113650
445404 648721
233421 712469
827902 437656
140043 696975
892693 563748
86139 374131
225426 992497
840826 737388
407151 901378
347416 916362
560247 341299
36103 964538
931231 219984
824132 522053
734767 612796
209218 293100
626111 352649
970694 907832
321180 582370
46254 416841
965952 418804
859027 761908
512428 513148
482746 308705
413984 850251
166709 243102
867959 194961
691343 52099
35991 466224
474979 917189
819465 274998
541521 36241
689669 45537
559323 376177
685068 528867
242983 509441
581965 209927
544192 534836
199204 124308
286609 457351
949841 311375
301322 646950
184742 188422
9601 92959
897382 711729
234566 664659
934156 926912
409886 936488
729880 588820
969725 952092
53927 978172
580411 815861
677579 941137
20930 581866
411932 174393
20775 393959
593916 598617
729257 652113
699815 558692
985529 30442
334211 721844
270409 395309
631478 854200
897209 353307
529814 90458
924909 58944
956922 512727
518268 197018
17104 235996
185149 636053
27845 708902
70787 172888
849300 529070
18989 517848
713409 765088
158184 704254
857659 84454
630645 135509
623089 36356
759561 79613
365307 167263
56320 220720
980615 997363
642163 6462
220499 298528
157764 849496
377058 608929
182276 710294
325684 646002
916414 323236
552428 998615
671303 187968
880171 843015
292010 64381
496575 689825
520355 702878
969689 46608
426420 688668
968878 622693
984490 723030
841647 623500
129743 425397
423503 333089
992189 85151
858596 68175
449892 728621
155139 998336
938897 883274
598939 242647
866164 680240
212101 436581
259857 589340
926976 919925
165656 174207
744729 546401
76600 430827
194248 911465
693157 990138
966476 870436
943409 914343
345113 877572
728192 312514
363455 926511
966333 548458
671232 749923
670890 138737
12169 63284
992701 663290
113762 41839
502355 263063
121461 112139
267029 161202
381235 151348
359369 958961
91349 284330
762934 949499
96958 964873
82648 613392
481563 524084
439005 23091
834931 963924
226964 895570
220709 810290
332648 234470
774638 59254
962589 44661
941791 942803
660893 751820
980524 133419
593113 555317
366771 945487
836287 360328
472578 1104
265421 244775
601055 847305
61625 856025
992400 1771
113794 41614
298751 148055
121405 948104
935556 231474
929158 721221
384644 212369
427385 286063
702704 627828
12305 184741
276551 359306
