442699 715375
523535 270926
607456 419146
368290 928921
688699 941742
737256 201022
769449 779043
356076 231332
639064 930506
867944 512811
202650 762541
223699 671453
101948 336029
656356 608581
25762 913845
180285 297679
928800 623075
23900 908651
567208 513281
786758 71007
945604 568206
694350 758784
297094 204694
749294 63764
574710 945278
82173 398254
806807 466694
244574 418639
39148 910606
700261 413955
451700 18151
727890 547048
155999 241322
221252 794676
178410 517151
485822 422225
386171 343648
535883 156177
623623 587391
518436 906937
335089 851011
425846 328870
460785 919204
209704 184613
474050 477507
296250 638488
845711 194961
168899 53161
520634 16178
88638 966630
154636 624171
607796 940664
209807 921271
221793 442926
82286 722578
576833 737610
752107 313304
435462 120310
562541 289725
733968 563509
542300 776049
923980 523893
335688 98453
667618 355676
592873 155311
113428 30846
729818 96160
367256 205609
704674 676145
233871 828962
880072 969916
962985 292180
571696 461425
340736 366174
604100 548827
641992 701484
620021 824721
568045 844923
593800 848372
161632 326535
311085 65612
536940 458076
905033 552010
478738 287635
440926 466131
49911 360719
19327 957234
756480 881321
901197 169386
301855 943913
641454 220127
682359 259347
913931 36348
976829 148051
789361 937200
707689 810677
955328 151700
620621 806064
697407 222422
811176 947331
915759 972438
990476 324810
466989 320954
755534 663012
532757 535318
247641 227070
992294 162617
318958 80744
90794 330536
45297 607541
631595 248287
711156 54906
779602 945818
632876 495943
603174 139555
321602 138230
604185 146380
365135 86907
450460 884498
78009 167096
7791 558452
758930 827365
110345 656205
81860 179226
124818 485245
309891 868799
781656 124544
766663 122261
650750 919605
984687 790013
952644 338514
730690 471621
578868 586867
971998 55811
593769 585926
404149 26345
74754 205876
767647 290581
164845 988347
113842 339718
230590 245089
416568 992920
145597 201763
962789 879817
783933 988397
846625 680936
253348 102594
400147 613963
486390 459636
323595 270365
299701 506972
920377 149743
695495 668510
219622 571814
953189 166161
578924 754746
570141 148963
819648 712269
362970 111227
725633 610708
749640 123162
701647 527622
133464 967921
527710 768206
203177 280706
555388 677815
128373 663056
952380 229444
549567 93851
631898 423676
194115 705078
902573 621631
625609 305951
316915 858794
539654 12200
782734 180934
423926 864615
521047 356846
534963 835658
569693 400162
258908 345067
757435 672684
534913 306694
597385 413233
412997 893203
542907 659704
266338 764637
239100 841753
771821 354276
127208 767926
669250 819305
105517 284435
156327 190149
497155 202910
598815 76369
799527 512421
879652 931985
25892 306182
50 702623
272548 97591
389346 695738
171729 123380
454737 50068
303751 166907
881084 568524
546924 573989
139919 358743
756621 233009
412770 345774
709709 470305
642979 925716
808197 909412
154956 543158
495071 930900
755518 155334
