452763 106973
291871 845652
568452 603623
277947 358467
347619 251088
443855 44511
195400 327327
935256 524633
574829 809936
486820 44672
53676 451006
23799 930263
491888 177134
267991 341541
739133 83680
740663 296286
862936 990119
443983 39094
86719 688288
747403 862076
504067 157200
496616 545646
4352 348995
592027 967703
22008 309773
779596 713473
215232 54824
865316 650994
959493 552447
565337 387966
760544 624654
837872 365711
476089 516438
823048 164684
223050 109657
475370 828840
472224 514293
942557 518945
502318 546173
72835 297978
603001 952946
166220 923053
456236 214133
977915 932487
887094 2995
876706 978696
946021 716285
410770 601132
850154 908844
571652 981663
310965 9135
539585 967668
660883 710850
198397 96081
92929 731139
400481 609125
858330 380973
885907 45738
324372 803783
534886 494819
311519 161667
318124 464107
56182 694609
839398 490109
491482 8099
516074 590599
272152 744460
494279 815095
68121 105577
951280 48073
737961 23536
399425 43707
743265 541455
878169 426338
208531 745887
745070 491441
793963 333254
882209 148424
889280 742223
306145 743762
287478 894221
374377 668560
843284 440905
925385 809713
283649 498532
644053 137678
406727 175391
794932 668011
756217 630824
115660 807951
397109 233126
256862 369821
385172 864804
136050 842817
323715 911948
655251 443356
944366 665309
485545 757488
506111 369586
623949 884326
168564 859052
413585 281316
45309 31780
214731 708130
695403 451442
108644 554945
721465 193116
641704 856799
699482 216181
712409 217378
582062 637316
693168 966710
203010 63716
226032 491005
602457 275731
791785 86954
798875 921397
660388 171975
945520 267284
975587 531
969404 591956
257379 924418
560860 359008
111594 761935
36927 498927
498622 953058
585130 267335
527926 248360
562465 732109
686575 9407
858173 729472
796911 792889
964297 43974
59133 855424
602468 441346
669348 618841
693156 939961
258611 772381
196634 961500
480470 193511
627322 714837
326956 253335
568505 369128
92302 720329
338179 634818
530609 663629
842948 808211
746981 940229
54115 659577
437466 211191
684267 381237
606386 723052
76256 788515
989832 347354
297943 629284
637792 500700
560075 278436
988330 788488
329575 940938
894045 870079
924971 87359
357724 457439
200837 503872
297388 982648
472934 821103
287963 412143
864671 767885
881337 752446
648214 57480
672263 861234
117807 53227
337100 565481
93013 177850
121605 305074
515003 181812
485400 806374
62317 256702
559447 437713
75218 808635
386482 789635
526371 102608
151516 203923
707120 536401
964094 298699
223715 350383
484487 268343
759690 530003
928327 717794
332652 193405
511662 922644
577612 367679
121238 405783
249977 782918
976459 65226
541804 664634
920550 948568
54921 814520
332437 928838
183040 243907
563198 709938
476252 448778
778479 928939
851750 123601
340359 278764
394383 482229
115941 82478
292715 688094
467160 26548
486065 921831
953383 675155
639087 123073
181190 517022
501130 385945
612756 860489
47591 15350
176318 648719
