1 10
100 200
201 210
900 1000
350 360
483 490
495 500
360 350
490 483
500 495
934 934
23643 23650
89075 69065
100000 99990
25 125
250 375
500 400
600 700
900 800
1000 1100
123456 987654
222 444
777 999
35342 1234
2134 1463
362 2
8976 9000
32463 60214
953 2
2500 125
6737 1244
777777 777777
878 3221
5675 12342
987 653
2356 5422
524288 524288
7725 8125
45735 64353
23 32
2457 2343
548 2354
979 698
2342 5332
98896 99999
9867 12500
87897 88000
98765 43210
987 123
764 909
25 25
1 1
295 125
565 3643
865 234
3474 2367
43754 24577
255334 123465
432933 985321
248453 463224
727356 363788
463234 643125
252344 132345
999999 1
100 99
300 212212
212212 300
5082 1
1 999999
100 200
99 7584
1 74
50 51
10 5
99 2
62101 700
400 1000
100 3985
82 74
73475 43753
2346 2346
3856 3475
34680 34578
6796 4586
2 2
89 32
496839 94854
2 4
500 1000
565 596
100 120
8 10
59404 404
92 29848
45894 398
485 4059
5 6
3055 49
309 409
94 49
4944 102
1029 30
435 786
30985 498
496833 495890
4985 102
4242 4949
498 3905
34 56
42 10
4893 584
32 43
32 123
1321 923
3275 3123
75532 74823
123332 123400
32 42
724208 236829
31786 77947
4766 71387
51747 8360
1773 22305
49010 8164
61096 935
318 36766
2555 7028
6509 8886
6757 59664
233 1815
5779 791
91854 7366
63000 196
8397 42268
257 41461
5094 586
2577 852
824 47365
23378 6872
44748 6845
40471 651
95471 924
406 5733
4628 66389
627 94586
36806 7021
807200 837434
628853 114925
763601 768561
137427 235137
98914 206323
617103 628005
131361 385189
980056 291095
637351 513283
895350 857509
450005 947460
856328 642922
874773 788664
262584 264352
385456 105268
829655 518079
451030 807711
847924 109366
529114 470913
877125 529362
335823 394008
489122 676338
682863 46765
611904 489748
205671 483510
446150 696648
632414 692934
164268 46180
477721 247693
981053 103805
177977 66955
739769 287813
547610 567724
46182 972664
11260 336922
726765 832689
397425 491264
776578 899057
751995 661618
954623 434734
733058 995003
428545 995615
165960 88100
169507 128327
222354 517120
418278 748859
826854 181306
656282 714655
86416 616381
712098 428158
58693 463129
260078 113033
171628 216200
95065 512072
775894 123817
160161 956069
7896 720194
554434 701693
781627 348031
276391 157671
683605 123554
327036 183370
668143 676060
