933852 501700 525
775933 601620 509
721872 555217 509
518362 549705 452
826423 298839 509
508608 410848 444
862991 452234 525
312838 980098 525
822594 384161 509
534478 573564 452
354124 924871 525
651308 163313 509
408969 567436 470
740282 525755 509
359686 408595 436
790611 589671 509
201501 834133 509
552921 213487 470
699059 42341 509
113685 201409 383
96175 767455 509
497936 627335 509
641591 870293 525
982421 709934 525
483382 454499 444
6978 899231 525
553647 46340 470
500144 503244 426
948020 68158 525
125607 349810 443
590309 587135 359
907677 549304 525
817790 112344 509
715060 113787 509
957254 833048 525
355803 343456 441
342663 775460 509
11970 639171 509
673542 457969 509
895924 745374 525
325968 74676 443
674414 541753 509
136508 131230 344
569977 524190 452
829686 746129 468
418224 863242 525
120007 885748 525
367286 233842 441
826240 865943 525
551106 27709 470
49423 753137 509
531847 391614 470
130422 19739 354
351751 570623 470
280580 238323 407
934661 684302 525
740285 689228 504
477503 241900 449
624773 396889 470
433284 728311 509
820769 247489 509
53068 140042 354
267626 34312 443
542088 388357 470
49508 260562 443
108985 360877 443
997238 274246 525
901602 764007 525
503581 581848 470
183547 61690 383
651056 948452 525
115000 386828 443
625234 111494 470
200999 501798 449
121155 871870 525
333216 568542 470
314148 56615 443
234955 502535 449
155131 66542 375
187181 929991 525
67232 5608 340
259630 765345 509
671830 183703 509
200531 188257 360
102157 525943 470
496128 463731 426
489964 290116 449
647200 204969 509
63419 109574 354
120761 474468 449
369014 347274 410
821866 416558 509
758833 506223 509
860278 269050 525
502825 663611 509
857427 798765 525
65352 640683 509
571766 193067 470
132504 728845 509
510527 805367 509
510234 830456 509
630407 606508 509
719669 276436 509
125684 870009 525
800184 520640 509
575446 734905 509
180376 717460 509
477248 421644 444
632591 486473 509
843043 110946 525
789793 75933 509
307565 713939 509
220022 630964 509
559592 692235 509
532221 863120 525
769654 624694 509
484282 300150 449
585187 341178 470
334347 131724 443
976812 145387 525
419415 316266 449
741424 668439 504
885241 10149 525
811171 920098 525
561107 637930 509
332365 875753 525
258129 223878 443
862138 339440 525
399536 936319 525
504809 123852 449
524056 68875 470
841679 610391 525
70642 957523 525
32731 912351 525
352853 877745 525
397853 65073 443
652098 543983 509
241147 100979 443
392166 128777 443
648552 503685 509
653629 515747 509
822008 548879 509
770827 171434 509
946985 396730 525
924213 540035 525
609878 391090 470
981279 89670 525
554092 28130 470
754077 403220 509
541595 398873 470
587448 144825 470
582567 353214 470
345299 20902 443
760599 143330 509
650661 515800 509
651945 17171 509
215734 409356 443
591406 57120 470
61037 710654 509
211822 103425 383
251721 37844 443
383151 655756 509
839735 335063 525
592034 477515 470
225057 30895 386
175970 615751 470
816824 689297 504
635522 43947 509
829377 623053 509
581619 412127 470
912428 643892 525
769950 382142 509
676259 519330 509
117373 876740 525
141171 867685 525
515133 42018 470
481023 784910 509
799805 379452 509
683574 10578 509
680456 69280 509
876169 809553 525
386870 603300 470
856559 653098 525
615094 169499 470
173703 282409 443
268497 583700 470
753095 520592 509
661600 521945 509
928168 349841 525
941682 111363 525
157022 335003 443
67951 383838 443
478761 980326 525
305229 38629 443
810563 863487 525
104472 638025 509
465340 94663 449
232729 728314 509
760931 580155 509
22026 704532 509
226771 631632 509
846667 678782 525
391762 781076 509
500295 102158 449
860609 19906 525
872304 269849 525
655889 906689 525
748241 224868 509
122095 723318 509
470056 899204 525
475429 670011 509
904834 476762 525
403895 699138 509
201612 858831 525
383479 840597 525
209736 746478 509
323233 691246 509
725447 389079 509
378275 382986 379
248830 88574 443
999207 762485 525
