271551 824535 509
670664 940529 525
896822 380100 525
610871 33723 470
507946 376763 449
556632 992849 525
536801 875049 525
671430 837482 504
531482 794949 509
721915 550597 509
666133 875094 525
772814 709841 468
660347 48792 509
468744 736130 509
753863 206390 509
210902 703199 509
818209 961418 525
482783 134104 449
448853 845386 525
839143 760666 525
869176 602180 525
654812 467637 509
396695 401390 387
581291 51177 470
724070 162704 509
815582 513765 509
87156 558751 470
819541 255720 509
105243 535348 470
658048 353197 509
307805 764762 509
887994 526994 525
198105 489805 449
63049 482493 449
377420 995990 525
189220 849343 525
201222 300570 443
673512 448499 509
284792 218682 443
928779 672415 525
422620 604532 470
532228 185758 470
909286 724878 525
19042 267463 443
269810 518525 470
931545 512548 525
757511 821985 468
707811 203743 509
367307 96826 443
173749 609359 470
878288 79088 525
191155 222735 386
476393 606672 470
723480 535880 509
980446 706251 525
673759 300029 509
224528 901844 525
361992 367576 361
520333 393768 470
85315 225670 386
223743 170676 386
622717 980917 525
835973 455631 509
301331 500958 449
181943 813001 509
210672 770523 509
810496 399421 509
777283 166857 509
795726 307513 509
286344 798802 509
907919 444184 525
744264 491795 509
261648 613277 470
542941 56654 470
859234 38985 525
854480 235050 525
915024 778340 525
16968 692108 509
285706 524524 470
579174 847521 525
862265 668836 525
343654 43439 443
366799 835089 509
478506 367442 449
72984 921434 525
542478 846901 525
613794 468954 470
400229 346517 436
112952 467921 449
635580 439043 509
672182 356621 509
681675 387120 509
842283 591380 525
953479 699433 525
477248 497499 426
70941 871789 525
712487 343766 509
449552 390594 449
554852 30059 470
383217 728524 509
774962 322556 509
197972 369436 443
623889 428632 470
6520 99327 351
291951 458046 449
459069 358255 449
414556 676202 509
441526 673814 509
490644 415347 444
261133 120627 443
46603 345693 443
726163 541622 509
624274 733426 509
132755 939661 525
174717 739432 509
67310 965481 525
796798 632861 504
401386 496192 449
685464 584325 509
77108 243448 443
461072 176853 449
730896 2432 509
772806 279986 509
335475 986399 525
536077 698012 509
81540 961848 525
403832 129047 443
535711 487273 470
662126 469815 509
466370 800411 509
482655 641864 509
272981 379990 441
976827 47913 525
304541 716557 509
285535 242665 407
818357 469580 509
638996 404841 509
71026 903520 525
723501 58893 509
804863 780372 468
194752 214800 373
333069 707863 509
804501 46220 509
365048 24255 443
771026 653338 504
862328 316301 525
437811 195865 449
678718 533661 509
737477 756983 424
404458 2474 443
492439 183251 449
993908 655105 525
195638 897338 525
923942 637062 525
505123 378851 449
416009 490275 444
813235 590308 509
715076 326362 509
184248 149560 383
234732 456163 449
892299 867631 445
738059 721773 424
499869 295129 449
915968 709377 525
680445 965618 525
191446 407906 443
270592 374974 441
379812 978591 525
360789 944966 525
52358 93780 351
34707 587847 470
397633 482440 449
893377 901079 401
613791 423456 470
984090 213223 525
920187 858312 476
360629 113076 443
426815 467469 444
422565 610468 470
897573 996174 507
915908 972681 507
154204 997048 525
743699 656559 504
973258 698889 525
343966 493843 449
861087 481860 525
751958 879175 525
402110 735491 509
729705 467749 509
809088 792703 468
682214 181391 509
308835 244507 407
938372 916907 476
982095 194937 525
835224 388171 509
577296 777266 509
435651 421901 418
472324 392049 449
906939 844107 445
398237 520814 470
652643 597385 509
788766 936147 525
646680 498855 509
253693 688647 509
834172 614263 509
138946 744346 509
403321 918820 525
152941 82211 375
723837 794833 468
254673 210680 443
295456 771925 509
657308 287004 509
594286 224324 470
486704 734157 509
633916 870294 525
930829 910654 476
845410 206117 525
66625 179461 383
407128 239703 441
845440 520945 525
964451 541661 525
900264 476509 525
519208 954985 525
900465 209064 525
478132 613228 470
674570 412824 509
898672 845599 445
999480 445858 525
785020 164469 509
763549 325442 509
757110 44004 509
223578 556447 470
696180 487670 509
767107 275350 509
391488 258257 441
842206 885650 432
767402 48353 509
94941 780842 509
915463 881304 476
571884 3857 470
251194 13384 443
764818 592382 509
488375 287584 449
474455 198271 449
534548 532536 377
772289 749785 468
875427 165094 525
324222 658514 509
783964 562068 509
811188 540177 509
904542 733589 525
