885 20 179
769 819 153
519 663 145
675 484 145
757 957 179
147 358 144
294 866 171
432 356 134
488 84 144
252 679 145
130 49 122
527 569 137
142 771 171
240 103 128
391 499 142
98 541 144
778 843 135
195 647 144
502 131 144
593 257 144
769 6 171
473 569 142
629 96 144
447 257 144
121 451 144
373 243 144
102 991 179
444 643 142
760 723 140
47 176 125
555 492 137
323 176 131
653 948 179
848 6 171
356 909 179
288 236 123
173 155 125
309 605 144
632 930 179
625 584 132
26 358 144
729 386 171
198 256 128
837 84 171
303 679 145
90 37 116
789 311 171
443 716 171
721 613 171
183 59 125
913 998 174
572 541 137
408 247 144
97 406 144
970 809 179
812 713 153
825 170 171
824 257 171
951 769 179
173 972 179
506 805 171
907 723 179
560 492 137
205 948 179
286 80 128
49 599 144
983 843 179
406 827 171
36 679 145
753 569 171
867 103 171
68 223 125
127 907 179
343 642 142
759 827 153
465 679 145
3 712 171
413 155 144
196 871 179
321 785 171
122 821 171
438 862 171
97 494 144
627 753 171
751 541 171
940 585 179
932 810 179
867 418 171
798 168 171
608 647 132
585 886 179
948 848 179
480 371 134
576 240 144
435 981 179
525 418 142
661 595 145
436 978 179
422 243 144
631 701 145
372 647 142
244 705 171
223 344 144
857 236 171
418 915 179
451 598 142
103 600 144
589 396 142
767 405 171
214 803 171
792 604 171
934 853 179
821 203 171
719 345 171
583 530 137
688 230 145
823 356 171
337 854 171
459 873 179
784 560 171
881 902 148
568 353 142
699 746 171
157 251 128
890 613 179
757 404 171
766 600 171
671 947 179
516 510 124
942 335 179
124 269 128
680 585 145
506 178 144
619 524 137
283 208 128
291 605 144
375 211 144
996 716 179
235 921 179
175 400 144
532 711 171
478 185 144
772 141 171
377 932 179
176 553 144
553 930 179
513 178 144
439 824 171
657 457 145
862 939 179
165 569 144
388 483 134
500 995 179
622 786 171
765 212 171
101 527 144
395 888 179
700 253 145
972 646 179
919 850 179
370 270 144
575 570 106
965 696 179
658 187 145
186 983 179
745 245 171
994 133 179
770 422 171
299 156 128
954 334 179
371 530 142
999 195 179
805 492 171
898 221 179
940 643 179
463 587 142
679 875 179
352 926 179
527 320 144
202 466 144
238 818 171
595 861 171
304 225 128
720 353 171
560 205 144
167 563 144
744 572 171
923 386 179
184 139 125
696 640 145
582 264 144
981 155 179
528 375 142
452 776 171
936 871 179
639 197 144
910 284 179
651 281 145
938 409 179
484 124 144
943 456 179
905 407 179
444 413 134
848 651 171
510 352 142
817 570 171
253 908 179
544 680 145
341 999 179
879 395 179
206 162 125
187 333 144
835 761 153
927 286 179
263 389 144
705 523 171
787 507 171
718 631 171
993 745 179
899 425 179
205 190 120
711 568 171
635 826 171
372 367 46
322 602 144
856 616 171
144 413 144
990 649 179
809 975 179
285 988 179
113 468 144
973 614 179
507 170 144
957 281 179
662 741 171
108 346 144
722 757 140
609 952 179
869 205 171
473 320 144
171 547 144
357 613 142
997 518 179
