1 1 1
2 2 2
1 2 2
2 1 2
19 33 112
21 84 116
87 88 31
93 6 116
7 80 116
79 40 116
91 95 106
26 71 113
72 3 113
34 24 112
28 82 116
64 50 113
69 86 116
84 40 116
19 92 116
31 16 112
47 39 110
36 50 110
71 80 116
6 97 119
86 27 116
98 58 119
74 10 116
72 23 113
30 12 112
16 93 116
38 99 119
62 71 108
9 28 112
79 68 116
26 27 112
83 39 116
43 88 116
61 26 113
23 91 116
25 22 24
80 3 116
39 92 116
31 70 113
61 70 108
53 19 112
26 5 24
49 47 105
90 93 93
74 99 119
46 71 113
17 86 116
70 9 113
1 85 116
33 23 112
620 436 142
294 728 171
416 462 134
709 472 171
336 56 144
850 188 171
885 116 179
840 322 171
626 860 171
350 937 179
394 707 171
665 502 145
607 405 142
384 736 171
606 350 142
218 925 179
348 347 126
525 569 137
932 715 179
89 304 128
145 15 122
947 164 179
421 229 144
663 971 179
983 263 179
314 728 171
842 586 171
928 377 179
463 666 145
363 435 134
453 748 171
350 165 144
307 655 145
414 748 171
483 36 144
209 857 171
733 740 140
217 31 125
996 710 179
729 323 171
410 155 144
374 259 144
548 587 137
631 805 171
531 264 144
19 346 144
116 652 145
909 394 179
614 282 144
608 265 144
6821 9793 260
5325 2041 238
7231 4739 262
9389 2940 262
5458 8919 262
4653 3627 238
4130 5484 215
5425 8566 262
2973 1120 217
4768 5115 210
4169 8286 262
6578 1461 262
9615 3976 262
3324 8505 262
1759 8443 262
8108 7348 252
6646 7863 257
1884 3 182
514 7335 262
2348 6047 238
8196 2005 262
34 1416 182
812 4821 238
6554 524 262
4997 492 238
8552 1856 262
3156 6388 262
9092 6294 257
7843 6512 257
7889 6658 257
4976 6473 262
8889 9384 260
7758 7637 177
586 3381 217
7954 920 262
6503 8281 257
7005 9580 260
9600 7373 260
6509 824 262
9600 9437 198
4129 8683 262
90 3675 217
7392 5427 262
7140 1006 262
5942 516 238
7203 7930 239
4459 1610 238
141 576 144
7265 1328 262
6969 6435 257
3572 1075 217
9807 3987 262
4663 6114 236
6660 5827 262
6791 2137 262
2797 7282 262
2443 5522 238
5098 4238 215
4484 6320 262
3576 4339 238
7055 9892 260
3073 4580 238
4922 7503 262
5415 7800 262
8799 7814 252
4667 2425 238
9930 5133 262
4396 9699 262
4668 7186 262
3652 3584 163
2211 4555 238
4081 7964 262
7868 1005 262
4480 5703 236
9496 3333 262
8740 8376 203
5798 4699 236
7930 1246 262
6175 3172 262
6282 5367 262
9587 1516 262
1494 9230 262
5584 6544 262
7971 4134 262
9065 5979 262
8306 1712 262
5540 5430 192
9044 8316 247
3002 5480 238
5195 9961 262
2946 1529 217
4297 7182 262
8943 3872 262
9542 7227 260
2800 7888 262
4480 2762 238
1113 8723 262
3747 8260 262
7271 8189 252
4069 1487 238
